matrix_mult.vcd
$date
	Tue Oct 21 14:42:46 2025
$end
$version
	ModelSim Version 2020.1
$end
$timescale
	1ps
$end

$scope module tb_matrix_multiplier $end
$var parameter 32 ! M1 $end
$var parameter 32 " N1 $end
$var parameter 32 # N2 $end
$var parameter 32 $ DATA_WIDTH $end
$var parameter 32 % CLK_PERIOD $end
$var reg 1 & clk $end
$var reg 1 ' rst $end
$var reg 1 ( start $end
$var reg 16 ) mat_a_data [15:0] $end
$var reg 16 * mat_b_data [15:0] $end
$var reg 4 + mat_a_addr [3:0] $end
$var reg 4 , mat_b_addr [3:0] $end
$var reg 1 - mat_a_wen $end
$var reg 1 . mat_b_wen $end
$var wire 1 / mat_c_data [15] $end
$var wire 1 0 mat_c_data [14] $end
$var wire 1 1 mat_c_data [13] $end
$var wire 1 2 mat_c_data [12] $end
$var wire 1 3 mat_c_data [11] $end
$var wire 1 4 mat_c_data [10] $end
$var wire 1 5 mat_c_data [9] $end
$var wire 1 6 mat_c_data [8] $end
$var wire 1 7 mat_c_data [7] $end
$var wire 1 8 mat_c_data [6] $end
$var wire 1 9 mat_c_data [5] $end
$var wire 1 : mat_c_data [4] $end
$var wire 1 ; mat_c_data [3] $end
$var wire 1 < mat_c_data [2] $end
$var wire 1 = mat_c_data [1] $end
$var wire 1 > mat_c_data [0] $end
$var wire 1 ? mat_c_valid $end
$var wire 1 @ done $end
$var integer 32 A i $end
$var integer 32 B result_count $end

$scope module dut $end
$var parameter 32 C M1 $end
$var parameter 32 D N1 $end
$var parameter 32 E N2 $end
$var parameter 32 F DATA_WIDTH $end
$var parameter 32 G S_IDLE $end
$var parameter 32 H S_CALC $end
$var parameter 32 I S_OUTPUT $end
$var parameter 32 J S_NEXT $end
$var parameter 32 K S_DONE $end
$var wire 1 L clk $end
$var wire 1 M rst $end
$var wire 1 N start $end
$var wire 1 O mat_a_data [15] $end
$var wire 1 P mat_a_data [14] $end
$var wire 1 Q mat_a_data [13] $end
$var wire 1 R mat_a_data [12] $end
$var wire 1 S mat_a_data [11] $end
$var wire 1 T mat_a_data [10] $end
$var wire 1 U mat_a_data [9] $end
$var wire 1 V mat_a_data [8] $end
$var wire 1 W mat_a_data [7] $end
$var wire 1 X mat_a_data [6] $end
$var wire 1 Y mat_a_data [5] $end
$var wire 1 Z mat_a_data [4] $end
$var wire 1 [ mat_a_data [3] $end
$var wire 1 \ mat_a_data [2] $end
$var wire 1 ] mat_a_data [1] $end
$var wire 1 ^ mat_a_data [0] $end
$var wire 1 _ mat_a_addr [3] $end
$var wire 1 ` mat_a_addr [2] $end
$var wire 1 a mat_a_addr [1] $end
$var wire 1 b mat_a_addr [0] $end
$var wire 1 c mat_a_wen $end
$var wire 1 d mat_b_data [15] $end
$var wire 1 e mat_b_data [14] $end
$var wire 1 f mat_b_data [13] $end
$var wire 1 g mat_b_data [12] $end
$var wire 1 h mat_b_data [11] $end
$var wire 1 i mat_b_data [10] $end
$var wire 1 j mat_b_data [9] $end
$var wire 1 k mat_b_data [8] $end
$var wire 1 l mat_b_data [7] $end
$var wire 1 m mat_b_data [6] $end
$var wire 1 n mat_b_data [5] $end
$var wire 1 o mat_b_data [4] $end
$var wire 1 p mat_b_data [3] $end
$var wire 1 q mat_b_data [2] $end
$var wire 1 r mat_b_data [1] $end
$var wire 1 s mat_b_data [0] $end
$var wire 1 t mat_b_addr [3] $end
$var wire 1 u mat_b_addr [2] $end
$var wire 1 v mat_b_addr [1] $end
$var wire 1 w mat_b_addr [0] $end
$var wire 1 x mat_b_wen $end
$var reg 16 y mat_c_data [15:0] $end
$var reg 1 z mat_c_valid $end
$var reg 1 { done $end
$var reg 2 | i [1:0] $end
$var reg 2 } j [1:0] $end
$var reg 2 ~ k [1:0] $end
$var reg 32 !! accumulator [31:0] $end
$var reg 3 "! state [2:0] $end
$upscope $end
$upscope $end
$enddefinitions $end
#0
$dumpvars
0&
1'
0(
bx )
bx *
bx +
bx ,
0-
0.
b0 y
0z
0{
b0 |
b0 }
b0 ~
b0 !!
b0 "!
b11 !
b11 "
b11 #
b10000 $
b1010 %
b11 C
b11 D
b11 E
b10000 F
b0 G
b1 H
b10 I
b11 J
b100 K
bx A
b0 B
0>
0=
0<
0;
0:
09
08
07
06
05
04
03
02
01
00
0/
0?
0@
0x
xw
xv
xu
xt
xs
xr
xq
xp
xo
xn
xm
xl
xk
xj
xi
xh
xg
xf
xe
xd
0c
xb
xa
x`
x_
x^
x]
x\
x[
xZ
xY
xX
xW
xV
xU
xT
xS
xR
xQ
xP
xO
0N
1M
0L
$end
#5000
1&
1L
#10000
0&
0L
#15000
1&
1L
#20000
0'
1-
b0 A
b0 +
b100000000 )
0&
1c
0^
0]
0\
0[
0Z
0Y
0X
0W
1V
0U
0T
0S
0R
0Q
0P
0O
0b
0a
0`
0_
0M
0L
#25000
1&
1L
#30000
b1 A
b1 +
b1000000000 )
0&
0V
1U
1b
0L
#35000
1&
1L
#40000
b10 A
b10 +
b1100000000 )
0&
1V
0b
1a
0L
#45000
1&
1L
#50000
b11 A
b11 +
b10000000000 )
0&
0V
0U
1T
1b
0L
#55000
1&
1L
#60000
b100 A
b100 +
b10100000000 )
0&
1V
0b
0a
1`
0L
#65000
1&
1L
#70000
b101 A
b101 +
b11000000000 )
0&
0V
1U
1b
0L
#75000
1&
1L
#80000
b110 A
b110 +
b11100000000 )
0&
1V
0b
1a
0L
#85000
1&
1L
#90000
b111 A
b111 +
b100000000000 )
0&
0V
0U
0T
1S
1b
0L
#95000
1&
1L
#100000
b1000 A
b1000 +
b100100000000 )
0&
1V
0b
0a
0`
1_
0L
#105000
1&
1L
#110000
b1001 A
0-
1.
b0 A
b0 ,
b100000000 *
0&
0c
1x
0s
0r
0q
0p
0o
0n
0m
0l
1k
0j
0i
0h
0g
0f
0e
0d
0w
0v
0u
0t
0L
#115000
1&
1L
#120000
b1 A
b1 ,
0&
1w
0L
#125000
1&
1L
#130000
b10 A
b10 ,
b0 *
0&
0k
0w
1v
0L
#135000
1&
1L
#140000
b11 A
b11 ,
0&
1w
0L
#145000
1&
1L
#150000
b100 A
b100 ,
b100000000 *
0&
1k
0w
0v
1u
0L
#155000
1&
1L
#160000
b101 A
b101 ,
0&
1w
0L
#165000
1&
1L
#170000
b110 A
b110 ,
0&
0w
1v
0L
#175000
1&
1L
#180000
b111 A
b111 ,
b0 *
0&
0k
1w
0L
#185000
1&
1L
#190000
b1000 A
b1000 ,
b100000000 *
0&
1k
0w
0v
0u
1t
0L
#195000
1&
1L
#200000
b1001 A
0.
0&
0x
0L
#205000
1&
1L
#210000
1(
0&
1N
0L
#215000
1&
1L
b1 "!
#220000
0(
0&
0N
0L
#225000
1&
1L
b10000000000000000 !!
b1 ~
#230000
0&
0L
#235000
1&
1L
b10 ~
#240000
0&
0L
#245000
1&
1L
b1000000000000000000 !!
b10 "!
#250000
0&
0L
#255000
1&
1L
b10000000000 y
1z
b0 !!
b0 ~
b11 "!
14
1?
#260000
0&
0L
#265000
1&
1L
0z
b1 }
b1 "!
b1 B
0?
#270000
0&
0L
#275000
1&
1L
b10000000000000000 !!
b1 ~
#280000
0&
0L
#285000
1&
1L
b110000000000000000 !!
b10 ~
#290000
0&
0L
#295000
1&
1L
b10 "!
#300000
0&
0L
#305000
1&
1L
b1100000000 y
1z
b0 !!
b0 ~
b11 "!
16
15
04
1?
#310000
0&
0L
#315000
1&
1L
0z
b10 }
b1 "!
b10 B
0?
#320000
0&
0L
#325000
1&
1L
b1 ~
#330000
0&
0L
#335000
1&
1L
b100000000000000000 !!
b10 ~
#340000
0&
0L
#345000
1&
1L
b1010000000000000000 !!
b10 "!
#350000
0&
0L
#355000
1&
1L
b10100000000 y
1z
b0 !!
b0 ~
b11 "!
05
14
1?
#360000
0&
0L
#365000
1&
1L
0z
b0 }
b1 |
b1 "!
b11 B
0?
#370000
0&
0L
#375000
1&
1L
b1000000000000000000 !!
b1 ~
#380000
0&
0L
#385000
1&
1L
b10 ~
#390000
0&
0L
#395000
1&
1L
b10100000000000000000 !!
b10 "!
#400000
0&
0L
#405000
1&
1L
b101000000000 y
1z
b0 !!
b0 ~
b11 "!
06
15
04
13
1?
#410000
0&
0L
#415000
1&
1L
0z
b1 }
b1 "!
b100 B
0?
#420000
0&
0L
#425000
1&
1L
b1000000000000000000 !!
b1 ~
#430000
0&
0L
#435000
1&
1L
b10010000000000000000 !!
b10 ~
#440000
0&
0L
#445000
1&
1L
b10 "!
#450000
0&
0L
#455000
1&
1L
b100100000000 y
1z
b0 !!
b0 ~
b11 "!
16
05
1?
#460000
0&
0L
#465000
1&
1L
0z
b10 }
b1 "!
b101 B
0?
#470000
0&
0L
#475000
1&
1L
b1 ~
#480000
0&
0L
#485000
1&
1L
b1010000000000000000 !!
b10 ~
#490000
0&
0L
#495000
1&
1L
b10110000000000000000 !!
b10 "!
#500000
0&
0L
#505000
1&
1L
b101100000000 y
1z
b0 !!
b0 ~
b11 "!
15
1?
#510000
0&
0L
#515000
1&
1L
0z
b0 }
b10 |
b1 "!
b110 B
0?
#520000
0&
0L
#525000
1&
1L
b1110000000000000000 !!
b1 ~
#530000
0&
0L
#535000
1&
1L
b10 ~
#540000
0&
0L
#545000
1&
1L
b100000000000000000000 !!
b10 "!
#550000
0&
0L
#555000
1&
1L
b1000000000000 y
1z
b0 !!
b0 ~
b11 "!
06
05
03
12
1?
#560000
0&
0L
#565000
1&
1L
0z
b1 }
b1 "!
b111 B
0?
#570000
0&
0L
#575000
1&
1L
b1110000000000000000 !!
b1 ~
#580000
0&
0L
#585000
1&
1L
b11110000000000000000 !!
b10 ~
#590000
0&
0L
#595000
1&
1L
b10 "!
#600000
0&
0L
#605000
1&
1L
b111100000000 y
1z
b0 !!
b0 ~
b11 "!
16
15
14
13
02
1?
#610000
0&
0L
#615000
1&
1L
0z
b10 }
b1 "!
b1000 B
0?
#620000
0&
0L
#625000
1&
1L
b1 ~
#630000
0&
0L
#635000
1&
1L
b10000000000000000000 !!
b10 ~
#640000
0&
0L
#645000
1&
1L
b100010000000000000000 !!
b10 "!
#650000
0&
0L
#655000
1&
1L
b1000100000000 y
1z
b0 !!
b0 ~
b11 "!
05
04
03
12
1?
#660000
0&
0L
#665000
1&
1L
0z
b0 }
b100 "!
b1001 B
0?
#670000
0&
0L
#675000
1&
1L
1{
b0 "!
1@
#680000
0&
0L
#685000
1&
1L
0{
0@
#690000
0&
0L
#695000
1&
1L
#700000
0&
0L
#705000
1&
1L
#710000
0&
0L
#715000
1&
1L
#720000
0&
0L
#725000
b0 A
b1 A
b10 A
b11 A
b100 A
b101 A
b110 A
b111 A
b1000 A
b1001 A
b0 A
b1 A
b10 A
b11 A
b100 A
b101 A
b110 A
b111 A
b1000 A
b1001 A
b0 A
b1 A
b10 A
b11 A
b100 A
b101 A
b110 A
b111 A
b1000 A
b1001 A
