matrix_mult.vcd
$date
	Tue Oct 21 12:35:41 2025
$end
$version
	ModelSim Version 2020.1
$end
$timescale
	1ps
$end

$scope module tb_matrix_multiplier $end
$var parameter 32 ! M1 $end
$var parameter 32 " N1 $end
$var parameter 32 # N2 $end
$var parameter 32 $ DATA_WIDTH $end
$var parameter 32 % CLK_PERIOD $end
$var reg 1 & clk $end
$var reg 1 ' rst $end
$var reg 1 ( start $end
$var reg 16 ) mat_a_data [15:0] $end
$var reg 16 * mat_b_data [15:0] $end
$var reg 4 + mat_a_addr [3:0] $end
$var reg 4 , mat_b_addr [3:0] $end
$var reg 1 - mat_a_wen $end
$var reg 1 . mat_b_wen $end
$var wire 1 / mat_c_data [15] $end
$var wire 1 0 mat_c_data [14] $end
$var wire 1 1 mat_c_data [13] $end
$var wire 1 2 mat_c_data [12] $end
$var wire 1 3 mat_c_data [11] $end
$var wire 1 4 mat_c_data [10] $end
$var wire 1 5 mat_c_data [9] $end
$var wire 1 6 mat_c_data [8] $end
$var wire 1 7 mat_c_data [7] $end
$var wire 1 8 mat_c_data [6] $end
$var wire 1 9 mat_c_data [5] $end
$var wire 1 : mat_c_data [4] $end
$var wire 1 ; mat_c_data [3] $end
$var wire 1 < mat_c_data [2] $end
$var wire 1 = mat_c_data [1] $end
$var wire 1 > mat_c_data [0] $end
$var wire 1 ? mat_c_valid $end
$var wire 1 @ done $end
$var integer 32 A result_count $end
$var integer 32 B error_count $end
$var integer 32 C i $end
$var integer 32 D int_part $end
$var integer 32 E frac_part $end
$var integer 32 F e_int_part $end
$var integer 32 G e_frac_part $end
$var integer 32 H diff $end

$scope module dut $end
$var parameter 32 I M1 $end
$var parameter 32 J N1 $end
$var parameter 32 K N2 $end
$var parameter 32 L DATA_WIDTH $end
$var parameter 2 M IDLE $end
$var parameter 2 N COMPUTE $end
$var parameter 2 O FINISH $end
$var wire 1 P clk $end
$var wire 1 Q rst $end
$var wire 1 R start $end
$var wire 1 S mat_a_data [15] $end
$var wire 1 T mat_a_data [14] $end
$var wire 1 U mat_a_data [13] $end
$var wire 1 V mat_a_data [12] $end
$var wire 1 W mat_a_data [11] $end
$var wire 1 X mat_a_data [10] $end
$var wire 1 Y mat_a_data [9] $end
$var wire 1 Z mat_a_data [8] $end
$var wire 1 [ mat_a_data [7] $end
$var wire 1 \ mat_a_data [6] $end
$var wire 1 ] mat_a_data [5] $end
$var wire 1 ^ mat_a_data [4] $end
$var wire 1 _ mat_a_data [3] $end
$var wire 1 ` mat_a_data [2] $end
$var wire 1 a mat_a_data [1] $end
$var wire 1 b mat_a_data [0] $end
$var wire 1 c mat_a_addr [3] $end
$var wire 1 d mat_a_addr [2] $end
$var wire 1 e mat_a_addr [1] $end
$var wire 1 f mat_a_addr [0] $end
$var wire 1 g mat_a_wen $end
$var wire 1 h mat_b_data [15] $end
$var wire 1 i mat_b_data [14] $end
$var wire 1 j mat_b_data [13] $end
$var wire 1 k mat_b_data [12] $end
$var wire 1 l mat_b_data [11] $end
$var wire 1 m mat_b_data [10] $end
$var wire 1 n mat_b_data [9] $end
$var wire 1 o mat_b_data [8] $end
$var wire 1 p mat_b_data [7] $end
$var wire 1 q mat_b_data [6] $end
$var wire 1 r mat_b_data [5] $end
$var wire 1 s mat_b_data [4] $end
$var wire 1 t mat_b_data [3] $end
$var wire 1 u mat_b_data [2] $end
$var wire 1 v mat_b_data [1] $end
$var wire 1 w mat_b_data [0] $end
$var wire 1 x mat_b_addr [3] $end
$var wire 1 y mat_b_addr [2] $end
$var wire 1 z mat_b_addr [1] $end
$var wire 1 { mat_b_addr [0] $end
$var wire 1 | mat_b_wen $end
$var reg 16 } mat_c_data [15:0] $end
$var reg 1 ~ mat_c_valid $end
$var reg 1 !! done $end
$var reg 2 "! state [1:0] $end
$var integer 32 #! i $end
$var integer 32 $! j $end
$var integer 32 %! k $end
$var integer 32 &! addr_a $end
$var integer 32 '! addr_b $end
$var integer 32 (! addr_c $end
$var reg 32 )! accumulator [31:0] $end
$upscope $end
$upscope $end
$enddefinitions $end
#0
$dumpvars
0&
1'
0(
bx )
bx *
bx +
bx ,
0-
0.
bx }
0~
0!!
b0 "!
b0 )!
b11 !
b11 "
b11 #
b10000 $
b1010 %
b11 I
b11 J
b11 K
b10000 L
b0 M
b1 N
b10 O
b0 #!
b0 $!
b0 %!
bx &!
bx '!
bx (!
b0 A
b0 B
bx C
bx D
bx E
bx F
bx G
bx H
x>
x=
x<
x;
x:
x9
x8
x7
x6
x5
x4
x3
x2
x1
x0
x/
0?
0@
0|
x{
xz
xy
xx
xw
xv
xu
xt
xs
xr
xq
xp
xo
xn
xm
xl
xk
xj
xi
xh
0g
xf
xe
xd
xc
xb
xa
x`
x_
x^
x]
x\
x[
xZ
xY
xX
xW
xV
xU
xT
xS
0R
1Q
0P
$end
#5000
1&
1P
#10000
0&
0P
#15000
1&
1P
#20000
0'
1-
b0 C
b0 +
b100000000 )
0&
1g
0b
0a
0`
0_
0^
0]
0\
0[
1Z
0Y
0X
0W
0V
0U
0T
0S
0f
0e
0d
0c
0Q
0P
#25000
1&
1P
#30000
b1 C
b1 +
b1000000000 )
0&
0Z
1Y
1f
0P
#35000
1&
1P
#40000
b10 C
b10 +
b1100000000 )
0&
1Z
0f
1e
0P
#45000
1&
1P
#50000
b11 C
b11 +
b10000000000 )
0&
0Z
0Y
1X
1f
0P
#55000
1&
1P
#60000
b100 C
b100 +
b10100000000 )
0&
1Z
0f
0e
1d
0P
#65000
1&
1P
#70000
b101 C
b101 +
b11000000000 )
0&
0Z
1Y
1f
0P
#75000
1&
1P
#80000
b110 C
b110 +
b11100000000 )
0&
1Z
0f
1e
0P
#85000
1&
1P
#90000
b111 C
b111 +
b100000000000 )
0&
0Z
0Y
0X
1W
1f
0P
#95000
1&
1P
#100000
b1000 C
b1000 +
b100100000000 )
0&
1Z
0f
0e
0d
1c
0P
#105000
1&
1P
#110000
b1001 C
0-
1.
b0 C
b0 ,
b100000000 *
0&
0g
1|
0w
0v
0u
0t
0s
0r
0q
0p
1o
0n
0m
0l
0k
0j
0i
0h
0{
0z
0y
0x
0P
#115000
1&
1P
#120000
b1 C
b1 ,
b0 *
0&
0o
1{
0P
#125000
1&
1P
#130000
b10 C
b10 ,
0&
0{
1z
0P
#135000
1&
1P
#140000
b11 C
b11 ,
0&
1{
0P
#145000
1&
1P
#150000
b100 C
b100 ,
b100000000 *
0&
1o
0{
0z
1y
0P
#155000
1&
1P
#160000
b101 C
b101 ,
b0 *
0&
0o
1{
0P
#165000
1&
1P
#170000
b110 C
b110 ,
0&
0{
1z
0P
#175000
1&
1P
#180000
b111 C
b111 ,
0&
1{
0P
#185000
1&
1P
#190000
b1000 C
b1000 ,
b100000000 *
0&
1o
0{
0z
0y
1x
0P
#195000
1&
1P
#200000
b1001 C
0.
0&
0|
0P
#205000
1&
1P
#210000
0&
0P
#215000
1&
1P
#220000
1(
0&
1R
0P
#225000
1&
1P
b1 "!
#230000
0(
0&
0R
0P
#235000
1&
1P
b0 &!
b0 '!
b0 (!
b10000000000000000 )!
b1 %!
#240000
0&
0P
#245000
1&
1P
b1 &!
b11 '!
b10 %!
#250000
0&
0P
#255000
1&
1P
b10 &!
b110 '!
b11 %!
b0 %!
b1 $!
b100000000 }
1~
b0 )!
0>
0=
0<
0;
0:
09
08
07
16
05
04
03
02
01
00
0/
1?
#260000
0&
0P
#265000
1&
1P
b0 &!
b1 '!
b1 (!
b1 %!
0~
b1 A
0?
#270000
0&
0P
#275000
1&
1P
b1 &!
b100 '!
b100000000000000000 )!
b10 %!
#280000
0&
0P
#285000
1&
1P
b10 &!
b111 '!
b11 %!
b0 %!
b10 $!
b1000000000 }
1~
b0 )!
06
15
1?
#290000
0&
0P
#295000
1&
1P
b0 &!
b10 '!
b10 (!
b1 %!
0~
b10 A
0?
#300000
0&
0P
#305000
1&
1P
b1 &!
b101 '!
b10 %!
#310000
0&
0P
#315000
1&
1P
b10 &!
b1000 '!
b110000000000000000 )!
b11 %!
b0 %!
b11 $!
b0 $!
b1 #!
b1100000000 }
1~
b0 )!
16
1?
#320000
0&
0P
#325000
1&
1P
b11 &!
b0 '!
b11 (!
b1000000000000000000 )!
b1 %!
0~
b11 A
0?
#330000
0&
0P
#335000
1&
1P
b100 &!
b11 '!
b10 %!
#340000
0&
0P
#345000
1&
1P
b101 &!
b110 '!
b11 %!
b0 %!
b1 $!
b10000000000 }
1~
b0 )!
06
05
14
1?
#350000
0&
0P
#355000
1&
1P
b11 &!
b1 '!
b100 (!
b1 %!
0~
b100 A
0?
#360000
0&
0P
#365000
1&
1P
b100 &!
b100 '!
b1010000000000000000 )!
b10 %!
#370000
0&
0P
#375000
1&
1P
b101 &!
b111 '!
b11 %!
b0 %!
b10 $!
b10100000000 }
1~
b0 )!
16
1?
#380000
0&
0P
#385000
1&
1P
b11 &!
b10 '!
b101 (!
b1 %!
0~
b101 A
0?
#390000
0&
0P
#395000
1&
1P
b100 &!
b101 '!
b10 %!
#400000
0&
0P
#405000
1&
1P
b101 &!
b1000 '!
b1100000000000000000 )!
b11 %!
b0 %!
b11 $!
b0 $!
b10 #!
b11000000000 }
1~
b0 )!
06
15
1?
#410000
0&
0P
#415000
1&
1P
b110 &!
b0 '!
b110 (!
b1110000000000000000 )!
b1 %!
0~
b110 A
0?
#420000
0&
0P
#425000
1&
1P
b111 &!
b11 '!
b10 %!
#430000
0&
0P
#435000
1&
1P
b1000 &!
b110 '!
b11 %!
b0 %!
b1 $!
b11100000000 }
1~
b0 )!
16
1?
#440000
0&
0P
#445000
1&
1P
b110 &!
b1 '!
b111 (!
b1 %!
0~
b111 A
0?
#450000
0&
0P
#455000
1&
1P
b111 &!
b100 '!
b10000000000000000000 )!
b10 %!
#460000
0&
0P
#465000
1&
1P
b1000 &!
b111 '!
b11 %!
b0 %!
b10 $!
b100000000000 }
1~
b0 )!
06
05
04
13
1?
#470000
0&
0P
#475000
1&
1P
b110 &!
b10 '!
b1000 (!
b1 %!
0~
b1000 A
0?
#480000
0&
0P
#485000
1&
1P
b111 &!
b101 '!
b10 %!
#490000
0&
0P
#495000
1&
1P
b1000 &!
b1000 '!
b10010000000000000000 )!
b11 %!
b0 %!
b11 $!
b0 $!
b11 #!
b100100000000 }
1~
b0 )!
b10 "!
16
1?
#500000
0&
0P
#505000
1&
1P
1!!
b0 "!
0~
b1001 A
1@
0?
#510000
0&
0P
#515000
1&
1P
0!!
0@
#520000
0&
0P
#525000
1&
1P
#530000
0&
0P
#535000
1&
1P
#540000
0&
0P
#545000
1&
1P
#550000
0&
0P
#555000
1&
1P
#560000
0&
0P
#565000
1&
1P
#570000
0&
0P
#575000
1&
1P
#580000
0&
0P
#585000
1&
1P
#590000
0&
0P
#595000
1&
1P
#600000
0&
0P
#605000
b0 C
b1 D
b0 E
b1 F
b0 G
b0 H
b1 C
b10 D
b10 F
b10 C
b11 D
b11 F
b11 C
b100 D
b100 F
b100 C
b101 D
b101 F
b101 C
b110 D
b110 F
b110 C
b111 D
b111 F
b111 C
b1000 D
b1000 F
b1000 C
b1001 D
b1001 F
b1001 C
